{
  "actors": [
    {
      "id": "48736d35-139f-4332-bc52-09762a1f7fa9",
      "text": "User",
      "type": "istar.Actor",
      "x": 1524,
      "y": 138,
      "customProperties": {
        "Description": ""
      },
      "nodes": [
        {
          "id": "0a11dd75-1b1e-47e9-92e9-a6707f31476f",
          "text": "Make transfer",
          "type": "istar.Goal",
          "x": 1583,
          "y": 227,
          "customProperties": {
            "Description": ""
          }
        },
        {
          "id": "a598af87-885c-44a5-851f-725b4c3b8040",
          "text": "Extract bank account statement",
          "type": "istar.Goal",
          "x": 1565,
          "y": 487,
          "customProperties": {
            "Description": ""
          }
        },
        {
          "id": "5d5031be-1d2d-4a05-9cb6-c5f89eea1bc7",
          "text": "Check financial market",
          "type": "istar.Goal",
          "x": 1580,
          "y": 402,
          "customProperties": {
            "Description": ""
          }
        },
        {
          "id": "95f8ce1e-8a7c-4886-88eb-da088b794eb4",
          "text": "Change bank account",
          "type": "istar.Goal",
          "x": 1583,
          "y": 343,
          "customProperties": {
            "Description": ""
          }
        },
        {
          "id": "8ad76fbd-5c99-4c8e-b6d9-31ad267223d1",
          "text": "Receive financial literacy advice",
          "type": "istar.Goal",
          "x": 1570,
          "y": 613,
          "customProperties": {
            "Description": ""
          }
        },
        {
          "id": "ceb0fe65-470b-4bd1-a2c9-d12b85c026e4",
          "text": "Check bank account balance",
          "type": "istar.Goal",
          "x": 1570,
          "y": 547,
          "customProperties": {
            "Description": ""
          }
        },
        {
          "id": "a9f7b839-0093-41db-bd9c-c2caf7d03ee7",
          "text": "Label financial movements",
          "type": "istar.Goal",
          "x": 1562,
          "y": 672,
          "customProperties": {
            "Description": ""
          }
        },
        {
          "id": "3e426fb6-ab36-4524-abec-461e6f7c9156",
          "text": "Define saving goal",
          "type": "istar.Goal",
          "x": 1578,
          "y": 287,
          "customProperties": {
            "Description": ""
          }
        },
        {
          "id": "86302359-b6fe-47e3-8602-73c8824807af",
          "text": "Correct information",
          "type": "istar.Quality",
          "x": 1865,
          "y": 548,
          "customProperties": {
            "Description": ""
          }
        },
        {
          "id": "5b0b3578-dbf3-4e1d-bfb4-897c59fd8856",
          "text": "Minimum delay",
          "type": "istar.Quality",
          "x": 1884,
          "y": 394,
          "customProperties": {
            "Description": ""
          }
        },
        {
          "id": "b0599804-524b-41c1-9c99-6f1547d14f37",
          "text": "Fast response time",
          "type": "istar.Quality",
          "x": 1860,
          "y": 486,
          "customProperties": {
            "Description": ""
          }
        },
        {
          "id": "210ef89f-8bb5-4795-b75e-82d9da2649f3",
          "text": "Notification",
          "type": "istar.Quality",
          "x": 1855,
          "y": 263,
          "customProperties": {
            "Description": ""
          }
        },
        {
          "id": "49714e04-8a54-48ea-a46f-bcdeb15c5762",
          "text": "Interact with application",
          "type": "istar.Goal",
          "x": 1572,
          "y": 737,
          "customProperties": {
            "Description": ""
          }
        },
        {
          "id": "be125437-fc0d-44e4-b34b-b3d3fe0c151e",
          "text": "Simple UI",
          "type": "istar.Quality",
          "x": 1730,
          "y": 731,
          "customProperties": {
            "Description": ""
          }
        },
        {
          "id": "c9a0ccd4-d88f-4851-a54d-df66035bd5f0",
          "text": "Easy access to main features",
          "type": "istar.Quality",
          "x": 1872,
          "y": 683,
          "customProperties": {
            "Description": ""
          }
        },
        {
          "id": "b1706ab1-403a-4aff-a79a-b2527bc52532",
          "text": "Application \"self explanatory\" ",
          "type": "istar.Quality",
          "x": 1863,
          "y": 750,
          "customProperties": {
            "Description": ""
          }
        },
        {
          "id": "35b30ce8-5068-40e4-ab28-4cd8ed63e1f6",
          "text": "Custom labels",
          "type": "istar.Quality",
          "x": 1749,
          "y": 668,
          "customProperties": {
            "Description": ""
          }
        },
        {
          "id": "4619d331-85e2-4817-8f48-0ee08ee35eaf",
          "text": "Useful tips",
          "type": "istar.Quality",
          "x": 1867,
          "y": 615,
          "customProperties": {
            "Description": ""
          }
        },
        {
          "id": "1109cc2d-ef9f-454c-8d54-a5a857f293cb",
          "text": "Coherent banking information",
          "type": "istar.Quality",
          "x": 1858,
          "y": 337,
          "customProperties": {
            "Description": ""
          }
        },
        {
          "id": "91840140-57b7-4db2-adf1-f0144cdad194",
          "text": "Login",
          "type": "istar.Goal",
          "x": 1593,
          "y": 164,
          "customProperties": {
            "Description": ""
          }
        },
        {
          "id": "5dbe4e9d-e7dd-4e9b-9a50-b709b705bc03",
          "text": "Quick login",
          "type": "istar.Quality",
          "x": 1846,
          "y": 154,
          "customProperties": {
            "Description": ""
          }
        },
        {
          "id": "52466683-bb42-4fbc-91e5-6ed2dffa6576",
          "text": "Secure",
          "type": "istar.Quality",
          "x": 1865,
          "y": 212,
          "customProperties": {
            "Description": ""
          }
        },
        {
          "id": "cb1b9ab6-61df-484c-be23-fe17171e236e",
          "text": "Encryption",
          "type": "istar.Task",
          "x": 1984,
          "y": 206,
          "customProperties": {
            "Description": ""
          }
        },
        {
          "id": "e114bba2-c0fc-4828-8423-935410c9febc",
          "text": "Get technical support",
          "type": "istar.Goal",
          "x": 1577,
          "y": 796,
          "customProperties": {
            "Description": ""
          }
        },
        {
          "id": "92b4e41e-ac8e-4fd9-9147-b844eecc7ba2",
          "text": "Fast response",
          "type": "istar.Quality",
          "x": 1723,
          "y": 792.5,
          "customProperties": {
            "Description": ""
          }
        },
        {
          "id": "22593f55-8331-4502-aca8-04aa1658d5aa",
          "text": "Multiple ways of contact",
          "type": "istar.Quality",
          "x": 1875,
          "y": 815,
          "customProperties": {
            "Description": ""
          }
        }
      ]
    },
    {
      "id": "ed6e83c8-77ac-4e04-a731-6aeceb96f9a3",
      "text": "Bank's API",
      "type": "istar.Actor",
      "x": 1692,
      "y": 2201,
      "customProperties": {
        "Description": ""
      },
      "nodes": [
        {
          "id": "57c4922c-9936-4929-897a-6d3e259ed3f5",
          "text": "Banking data provider",
          "type": "istar.Goal",
          "x": 1766,
          "y": 2219,
          "customProperties": {
            "Description": ""
          }
        }
      ]
    },
    {
      "id": "23063df1-506a-4e03-8d32-1a9329c544d5",
      "text": "Broker's API",
      "type": "istar.Actor",
      "x": 1711,
      "y": 2475,
      "customProperties": {
        "Description": ""
      },
      "nodes": [
        {
          "id": "a1547d0f-0f5e-4aa3-911d-0ebd631f7c32",
          "text": "Financial market's data provider",
          "type": "istar.Goal",
          "x": 1787,
          "y": 2495,
          "customProperties": {
            "Description": ""
          }
        }
      ]
    },
    {
      "id": "e6f15f5a-a415-42f2-9c84-42e134f2caa9",
      "text": "Moneygement App",
      "type": "istar.Actor",
      "x": 615,
      "y": 201,
      "customProperties": {
        "Description": ""
      },
      "nodes": [
        {
          "id": "7c5f8189-0556-484e-89b3-5dba8584c019",
          "text": "Authenticate user",
          "type": "istar.Goal",
          "x": 630,
          "y": 269,
          "customProperties": {
            "Description": ""
          }
        },
        {
          "id": "7d22223f-fe74-468a-9c56-218e0d23e43a",
          "text": "Bank transfer execution",
          "type": "istar.Goal",
          "x": 628,
          "y": 321,
          "customProperties": {
            "Description": ""
          }
        },
        {
          "id": "8d7844f5-8410-452f-a313-b6d0c4de380b",
          "text": "Bank account balance shown",
          "type": "istar.Goal",
          "x": 625,
          "y": 519,
          "customProperties": {
            "Description": ""
          }
        },
        {
          "id": "2f9a508f-80c1-4571-a963-910604124627",
          "text": "Banking information fetched",
          "type": "istar.Goal",
          "x": 625,
          "y": 388,
          "customProperties": {
            "Description": ""
          }
        },
        {
          "id": "c73727f9-050c-44f0-bb0b-5f8ffba31992",
          "text": "Financial markets' information fetched",
          "type": "istar.Goal",
          "x": 623,
          "y": 451,
          "customProperties": {
            "Description": ""
          }
        },
        {
          "id": "b916dad9-5861-453f-adfc-1db699aa61c5",
          "text": "New features added",
          "type": "istar.Goal",
          "x": 628,
          "y": 635,
          "customProperties": {
            "Description": ""
          }
        },
        {
          "id": "bbe90a16-0520-4b6b-92c7-6df05296ab88",
          "text": "System maintenance done",
          "type": "istar.Goal",
          "x": 625,
          "y": 577,
          "customProperties": {
            "Description": ""
          }
        },
        {
          "id": "7ee56417-0a4b-4bf4-9820-45554700ef71",
          "text": "Correct information",
          "type": "istar.Quality",
          "x": 789,
          "y": 515,
          "customProperties": {
            "Description": ""
          }
        },
        {
          "id": "f55da100-5ec5-49ac-b7ac-5b059d33b8be",
          "text": "Notify user",
          "type": "istar.Quality",
          "x": 771,
          "y": 255,
          "customProperties": {
            "Description": ""
          }
        },
        {
          "id": "bd6ca89c-cde7-435f-bf6d-076691bb395c",
          "text": "User login",
          "type": "istar.Task",
          "x": 914,
          "y": 265,
          "customProperties": {
            "Description": ""
          }
        },
        {
          "id": "0555790e-8be2-43ef-b163-2d9d63b34c22",
          "text": "Transfer request",
          "type": "istar.Task",
          "x": 915,
          "y": 315,
          "customProperties": {
            "Description": ""
          }
        },
        {
          "id": "d84a2562-e2d1-4c0e-8eef-02a535e972ae",
          "text": "Quick transfer",
          "type": "istar.Quality",
          "x": 763,
          "y": 350,
          "customProperties": {
            "Description": ""
          }
        },
        {
          "id": "4ee89d6a-fd8c-4016-bcd6-0531d68f4f52",
          "text": "Secure communication",
          "type": "istar.Quality",
          "x": 741,
          "y": 437,
          "customProperties": {
            "Description": ""
          }
        },
        {
          "id": "5d261e00-b829-4b57-bc72-493dbd84585d",
          "text": "Low down time",
          "type": "istar.Quality",
          "x": 777,
          "y": 578,
          "customProperties": {
            "Description": ""
          }
        },
        {
          "id": "c623707f-59b5-4889-bd6b-b00eef3b86da",
          "text": "Develop health monitoring platform",
          "type": "istar.Task",
          "x": 897,
          "y": 578,
          "customProperties": {
            "Description": ""
          }
        },
        {
          "id": "e055cb8e-4ab1-4d0a-a1eb-659d62315226",
          "text": "Not break actual system",
          "type": "istar.Quality",
          "x": 764,
          "y": 632,
          "customProperties": {
            "Description": ""
          }
        },
        {
          "id": "2828e3ba-64fd-4e9b-b27f-cc97d72a6c6c",
          "text": "Secure",
          "type": "istar.Quality",
          "x": 769,
          "y": 394,
          "customProperties": {
            "Description": ""
          }
        },
        {
          "id": "fd98ed64-6841-44a3-89c6-c9efeb739975",
          "text": "Develop data's encryption",
          "type": "istar.Task",
          "x": 940,
          "y": 418,
          "customProperties": {
            "Description": ""
          }
        },
        {
          "id": "1930e998-c0d4-46a8-9bc4-91b4c5f2b4b8",
          "text": "Transfer status ",
          "type": "istar.Quality",
          "x": 759,
          "y": 303,
          "customProperties": {
            "Description": ""
          }
        },
        {
          "id": "ddf28939-2775-4edd-9097-f40a66cd43ff",
          "text": "Generate financial literacy tips",
          "type": "istar.Goal",
          "x": 632,
          "y": 687,
          "customProperties": {
            "Description": ""
          }
        },
        {
          "id": "697ded08-f974-44dc-80ff-3869320b6d1d",
          "text": "Regular tips",
          "type": "istar.Quality",
          "x": 805,
          "y": 689,
          "customProperties": {
            "Description": ""
          }
        }
      ]
    },
    {
      "id": "bc0257d0-4204-4c87-9d78-b37d0b23e0e2",
      "text": "Database",
      "type": "istar.Role",
      "x": 100,
      "y": 27,
      "customProperties": {
        "Description": ""
      },
      "nodes": [
        {
          "id": "d983f745-1329-4314-8b77-2ff0634b6ed0",
          "text": "Retrieves data",
          "type": "istar.Goal",
          "x": 100,
          "y": 101,
          "customProperties": {
            "Description": ""
          }
        },
        {
          "id": "b3749102-e943-4c5d-9dc0-411d5d864051",
          "text": "Optimized queries",
          "type": "istar.Quality",
          "x": 370,
          "y": 87,
          "customProperties": {
            "Description": ""
          }
        },
        {
          "id": "abd82dce-bf03-465a-aa9a-202701d2baea",
          "text": "Maintenance",
          "type": "istar.Goal",
          "x": 103,
          "y": 168,
          "customProperties": {
            "Description": ""
          }
        },
        {
          "id": "77e8d422-bcad-43a2-b452-86cf0164fc33",
          "text": "Low down time",
          "type": "istar.Quality",
          "x": 238,
          "y": 164,
          "customProperties": {
            "Description": ""
          }
        },
        {
          "id": "08ba0e2e-8b66-4942-a22a-80df1a7b2fa0",
          "text": "Backup data",
          "type": "istar.Quality",
          "x": 242,
          "y": 218,
          "customProperties": {
            "Description": ""
          }
        },
        {
          "id": "99734b31-d3b4-49bd-8d6e-38c8a09d8241",
          "text": "Fast response",
          "type": "istar.Quality",
          "x": 232,
          "y": 95,
          "customProperties": {
            "Description": ""
          }
        }
      ]
    },
    {
      "id": "c4616335-fdff-441e-a6f3-9244d2920d92",
      "text": "Banking Services",
      "type": "istar.Actor",
      "x": 150,
      "y": 347,
      "customProperties": {
        "Description": ""
      },
      "nodes": [
        {
          "id": "2e3b6893-8481-49d7-884e-07536757d753",
          "text": "Retrieve data",
          "type": "istar.Goal",
          "x": 164,
          "y": 414,
          "customProperties": {
            "Description": ""
          }
        },
        {
          "id": "e8abd10c-41ca-41ea-9cad-463faf8a92e4",
          "text": "Fast response",
          "type": "istar.Quality",
          "x": 282,
          "y": 403,
          "customProperties": {
            "Description": ""
          }
        }
      ]
    },
    {
      "id": "847afd5b-1cff-4d48-8a0d-e53d29522ef8",
      "text": "Financial market's Service",
      "type": "istar.Actor",
      "x": 144,
      "y": 516,
      "customProperties": {
        "Description": ""
      },
      "nodes": [
        {
          "id": "2e758e43-ff70-4206-a4be-b36c411b2ad3",
          "text": "Retrieve data",
          "type": "istar.Goal",
          "x": 154,
          "y": 583,
          "customProperties": {
            "Description": ""
          }
        },
        {
          "id": "e2546635-a33e-4a5d-9081-3266da5db88a",
          "text": "Fast response",
          "type": "istar.Quality",
          "x": 282,
          "y": 565,
          "customProperties": {
            "Description": ""
          }
        }
      ]
    },
    {
      "id": "d46ed2d7-0981-4fcf-aaf6-5ea920f45b5e",
      "text": "Dev Team",
      "type": "istar.Actor",
      "x": 148,
      "y": 698,
      "customProperties": {
        "Description": ""
      },
      "nodes": [
        {
          "id": "44e9c560-aeaa-4e1b-a3a2-c1c6d43db7da",
          "text": "Develop new features",
          "type": "istar.Goal",
          "x": 163,
          "y": 819,
          "customProperties": {
            "Description": ""
          }
        },
        {
          "id": "b74bf503-d286-4fa8-ba7e-f6139692974c",
          "text": "System Maintenance",
          "type": "istar.Goal",
          "x": 171,
          "y": 761,
          "customProperties": {
            "Description": ""
          }
        },
        {
          "id": "556cbc90-2954-48ce-800e-59578050257d",
          "text": "Give support to client",
          "type": "istar.Goal",
          "x": 163,
          "y": 867,
          "customProperties": {
            "Description": ""
          }
        }
      ]
    }
  ],
  "orphans": [],
  "dependencies": [
    {
      "id": "e7c41124-aa3e-4477-bdf2-8d27c8feaf95",
      "text": "Login sucessful",
      "type": "istar.Goal",
      "x": 1198,
      "y": 233,
      "customProperties": {
        "Description": ""
      },
      "source": "91840140-57b7-4db2-adf1-f0144cdad194",
      "target": "bd6ca89c-cde7-435f-bf6d-076691bb395c"
    },
    {
      "id": "80da269b-7af7-44c8-8b61-66de2cfa186d",
      "text": "Transfer executed",
      "type": "istar.Goal",
      "x": 1193,
      "y": 298,
      "customProperties": {
        "Description": ""
      },
      "source": "0a11dd75-1b1e-47e9-92e9-a6707f31476f",
      "target": "0555790e-8be2-43ef-b163-2d9d63b34c22"
    },
    {
      "id": "8b1d3a67-52f0-4eb0-80f3-212f44a1802d",
      "text": "Display financial market data",
      "type": "istar.Task",
      "x": 1199,
      "y": 461,
      "customProperties": {
        "Description": ""
      },
      "source": "5d5031be-1d2d-4a05-9cb6-c5f89eea1bc7",
      "target": "c73727f9-050c-44f0-bb0b-5f8ffba31992"
    },
    {
      "id": "8c133555-3daa-4d76-bb05-1f172ac2dc1d",
      "text": "Update user's bank account data",
      "type": "istar.Goal",
      "x": 1201,
      "y": 368,
      "customProperties": {
        "Description": ""
      },
      "source": "95f8ce1e-8a7c-4886-88eb-da088b794eb4",
      "target": "2f9a508f-80c1-4571-a963-910604124627"
    },
    {
      "id": "1b13b79d-fe81-4bc5-bd2c-43654711837f",
      "text": "Generate financial literacy tips",
      "type": "istar.Task",
      "x": 1202,
      "y": 653,
      "customProperties": {
        "Description": ""
      },
      "source": "ddf28939-2775-4edd-9097-f40a66cd43ff",
      "target": "8ad76fbd-5c99-4c8e-b6d9-31ad267223d1"
    },
    {
      "id": "348f85d3-3f58-46a7-b6b9-28f0743bdf09",
      "text": "Banking information",
      "type": "istar.Resource",
      "x": 409,
      "y": 353,
      "customProperties": {
        "Description": ""
      },
      "source": "2f9a508f-80c1-4571-a963-910604124627",
      "target": "c4616335-fdff-441e-a6f3-9244d2920d92"
    },
    {
      "id": "3ea5dd50-f7f2-4ed1-93e6-fcd96cebd147",
      "text": "Financial market information",
      "type": "istar.Resource",
      "x": 408,
      "y": 514,
      "customProperties": {
        "Description": ""
      },
      "source": "c73727f9-050c-44f0-bb0b-5f8ffba31992",
      "target": "847afd5b-1cff-4d48-8a0d-e53d29522ef8"
    },
    {
      "id": "c8146510-3113-4c37-b121-cd5b85f61e3c",
      "text": "Provide maintenance",
      "type": "istar.Task",
      "x": 426,
      "y": 687,
      "customProperties": {
        "Description": ""
      },
      "source": "bbe90a16-0520-4b6b-92c7-6df05296ab88",
      "target": "b74bf503-d286-4fa8-ba7e-f6139692974c"
    },
    {
      "id": "baf14172-2d86-4325-8d21-b14477beb1e0",
      "text": "Develop new features based on user's opinion",
      "type": "istar.Task",
      "x": 416,
      "y": 736,
      "customProperties": {
        "Description": ""
      },
      "source": "b916dad9-5861-453f-adfc-1db699aa61c5",
      "target": "44e9c560-aeaa-4e1b-a3a2-c1c6d43db7da"
    },
    {
      "id": "ec1e4235-ef9b-447b-aeed-7c5d21c774e8",
      "text": "Provide feedback",
      "type": "istar.Task",
      "x": 882,
      "y": 799,
      "customProperties": {
        "Description": ""
      },
      "source": "44e9c560-aeaa-4e1b-a3a2-c1c6d43db7da",
      "target": "e114bba2-c0fc-4828-8423-935410c9febc"
    },
    {
      "id": "b389f834-c609-4ea4-b26d-7676bd975385",
      "text": "Provide technical support",
      "type": "istar.Task",
      "x": 882,
      "y": 868,
      "customProperties": {
        "Description": ""
      },
      "source": "e114bba2-c0fc-4828-8423-935410c9febc",
      "target": "556cbc90-2954-48ce-800e-59578050257d"
    },
    {
      "id": "d8ed3a1f-284d-44be-9879-3f0f01f4dde1",
      "text": "Display balance",
      "type": "istar.Task",
      "x": 1197,
      "y": 528,
      "customProperties": {
        "Description": ""
      },
      "source": "ceb0fe65-470b-4bd1-a2c9-d12b85c026e4",
      "target": "8d7844f5-8410-452f-a313-b6d0c4de380b"
    }
  ],
  "links": [
    {
      "id": "b8b8559a-c687-4f25-a991-02d7a8a90631",
      "type": "istar.QualificationLink",
      "source": "86302359-b6fe-47e3-8602-73c8824807af",
      "target": "ceb0fe65-470b-4bd1-a2c9-d12b85c026e4"
    },
    {
      "id": "5d678d18-9eee-4676-9a38-4a99ab302430",
      "type": "istar.QualificationLink",
      "source": "b0599804-524b-41c1-9c99-6f1547d14f37",
      "target": "a598af87-885c-44a5-851f-725b4c3b8040"
    },
    {
      "id": "41a28be4-d24e-43c5-8a70-b7866894f3af",
      "type": "istar.QualificationLink",
      "source": "210ef89f-8bb5-4795-b75e-82d9da2649f3",
      "target": "3e426fb6-ab36-4524-abec-461e6f7c9156"
    },
    {
      "id": "fb4387f2-67d0-4d11-ac07-5ae241d8d8f6",
      "type": "istar.QualificationLink",
      "source": "5b0b3578-dbf3-4e1d-bfb4-897c59fd8856",
      "target": "5d5031be-1d2d-4a05-9cb6-c5f89eea1bc7"
    },
    {
      "id": "ce1f07e2-501d-4337-89e4-a8e1984938c9",
      "type": "istar.ContributionLink",
      "source": "c9a0ccd4-d88f-4851-a54d-df66035bd5f0",
      "target": "be125437-fc0d-44e4-b34b-b3d3fe0c151e",
      "label": "help"
    },
    {
      "id": "f005d2b9-fdc6-46be-9a84-b7f8387b4178",
      "type": "istar.ContributionLink",
      "source": "b1706ab1-403a-4aff-a79a-b2527bc52532",
      "target": "be125437-fc0d-44e4-b34b-b3d3fe0c151e",
      "label": "help"
    },
    {
      "id": "a592fe48-32e8-4e62-8a81-234e9992d144",
      "type": "istar.QualificationLink",
      "source": "be125437-fc0d-44e4-b34b-b3d3fe0c151e",
      "target": "49714e04-8a54-48ea-a46f-bcdeb15c5762"
    },
    {
      "id": "48c61f9c-b11d-47dd-997d-5a0b623fb593",
      "type": "istar.QualificationLink",
      "source": "35b30ce8-5068-40e4-ab28-4cd8ed63e1f6",
      "target": "a9f7b839-0093-41db-bd9c-c2caf7d03ee7"
    },
    {
      "id": "878f1f48-ee53-4bd7-b21b-432d9eaa0f53",
      "type": "istar.QualificationLink",
      "source": "4619d331-85e2-4817-8f48-0ee08ee35eaf",
      "target": "8ad76fbd-5c99-4c8e-b6d9-31ad267223d1"
    },
    {
      "id": "c2ad2f8b-1d99-4e17-814f-364327733dda",
      "type": "istar.QualificationLink",
      "source": "1109cc2d-ef9f-454c-8d54-a5a857f293cb",
      "target": "95f8ce1e-8a7c-4886-88eb-da088b794eb4"
    },
    {
      "id": "2d0c49cf-2e1a-4155-ab4f-a983a4ca1cef",
      "type": "istar.QualificationLink",
      "source": "7ee56417-0a4b-4bf4-9820-45554700ef71",
      "target": "8d7844f5-8410-452f-a313-b6d0c4de380b"
    },
    {
      "id": "5c522000-5d6f-477f-92ea-07f43d1d1656",
      "type": "istar.QualificationLink",
      "source": "f55da100-5ec5-49ac-b7ac-5b059d33b8be",
      "target": "7c5f8189-0556-484e-89b3-5dba8584c019"
    },
    {
      "id": "cf1f2aae-5688-4b8c-aa00-73ccee5f48bf",
      "type": "istar.ContributionLink",
      "source": "bd6ca89c-cde7-435f-bf6d-076691bb395c",
      "target": "f55da100-5ec5-49ac-b7ac-5b059d33b8be",
      "label": "make"
    },
    {
      "id": "4e57605e-ed8b-40de-b75e-030ece08c051",
      "type": "istar.QualificationLink",
      "source": "d84a2562-e2d1-4c0e-8eef-02a535e972ae",
      "target": "7d22223f-fe74-468a-9c56-218e0d23e43a"
    },
    {
      "id": "5c492f59-6939-4281-b6d5-06c83ddf153b",
      "type": "istar.ContributionLink",
      "source": "0555790e-8be2-43ef-b163-2d9d63b34c22",
      "target": "d84a2562-e2d1-4c0e-8eef-02a535e972ae",
      "label": "make"
    },
    {
      "id": "5cba1022-1d04-4760-a22b-f8e92c0a37d2",
      "type": "istar.QualificationLink",
      "source": "4ee89d6a-fd8c-4016-bcd6-0531d68f4f52",
      "target": "2f9a508f-80c1-4571-a963-910604124627"
    },
    {
      "id": "26c6d05b-1c05-473b-9c0f-3087c10506a6",
      "type": "istar.QualificationLink",
      "source": "4ee89d6a-fd8c-4016-bcd6-0531d68f4f52",
      "target": "c73727f9-050c-44f0-bb0b-5f8ffba31992"
    },
    {
      "id": "36cda840-26d8-46f5-a6eb-bc7a5d938b63",
      "type": "istar.QualificationLink",
      "source": "5d261e00-b829-4b57-bc72-493dbd84585d",
      "target": "bbe90a16-0520-4b6b-92c7-6df05296ab88"
    },
    {
      "id": "5dc5ad42-7fb6-440b-8fea-6d8fe5f525e9",
      "type": "istar.ContributionLink",
      "source": "c623707f-59b5-4889-bd6b-b00eef3b86da",
      "target": "5d261e00-b829-4b57-bc72-493dbd84585d",
      "label": "help"
    },
    {
      "id": "47e71597-050e-457e-b923-79acea882235",
      "type": "istar.QualificationLink",
      "source": "e055cb8e-4ab1-4d0a-a1eb-659d62315226",
      "target": "b916dad9-5861-453f-adfc-1db699aa61c5"
    },
    {
      "id": "22492039-6583-43df-b5ad-36b76678dbf6",
      "type": "istar.QualificationLink",
      "source": "2828e3ba-64fd-4e9b-b27f-cc97d72a6c6c",
      "target": "7d22223f-fe74-468a-9c56-218e0d23e43a"
    },
    {
      "id": "c10de754-a901-4987-84c3-4ff72f1ba820",
      "type": "istar.ContributionLink",
      "source": "fd98ed64-6841-44a3-89c6-c9efeb739975",
      "target": "2828e3ba-64fd-4e9b-b27f-cc97d72a6c6c",
      "label": "help"
    },
    {
      "id": "23a6cc36-3f35-4086-956c-8eca03df7ba2",
      "type": "istar.ContributionLink",
      "source": "fd98ed64-6841-44a3-89c6-c9efeb739975",
      "target": "4ee89d6a-fd8c-4016-bcd6-0531d68f4f52",
      "label": "help"
    },
    {
      "id": "4e87e4b0-ae51-4416-8e19-340216f5909f",
      "type": "istar.ParticipatesInLink",
      "source": "bc0257d0-4204-4c87-9d78-b37d0b23e0e2",
      "target": "e6f15f5a-a415-42f2-9c84-42e134f2caa9"
    },
    {
      "id": "1c0aee76-9a49-4dbf-ad56-f3b1f2074698",
      "type": "istar.QualificationLink",
      "source": "77e8d422-bcad-43a2-b452-86cf0164fc33",
      "target": "abd82dce-bf03-465a-aa9a-202701d2baea"
    },
    {
      "id": "d61181d8-c1b6-4e92-8a26-5b75b958fc48",
      "type": "istar.QualificationLink",
      "source": "08ba0e2e-8b66-4942-a22a-80df1a7b2fa0",
      "target": "abd82dce-bf03-465a-aa9a-202701d2baea"
    },
    {
      "id": "50af3d74-1db5-4da4-a22a-518e8d35a707",
      "type": "istar.QualificationLink",
      "source": "99734b31-d3b4-49bd-8d6e-38c8a09d8241",
      "target": "d983f745-1329-4314-8b77-2ff0634b6ed0"
    },
    {
      "id": "84322ab1-3779-4bf1-8109-919b642dadf0",
      "type": "istar.ContributionLink",
      "source": "b3749102-e943-4c5d-9dc0-411d5d864051",
      "target": "99734b31-d3b4-49bd-8d6e-38c8a09d8241",
      "label": "help"
    },
    {
      "id": "6cc7cbda-8b0b-4594-b7d7-40b57be91e4d",
      "type": "istar.QualificationLink",
      "source": "e8abd10c-41ca-41ea-9cad-463faf8a92e4",
      "target": "2e3b6893-8481-49d7-884e-07536757d753"
    },
    {
      "id": "43cd5ba2-03b8-491b-b21c-5ea9a313d41c",
      "type": "istar.QualificationLink",
      "source": "e2546635-a33e-4a5d-9081-3266da5db88a",
      "target": "2e758e43-ff70-4206-a4be-b36c411b2ad3"
    },
    {
      "id": "e96e79ed-f9a8-4e03-9a3e-26e3acaea46d",
      "type": "istar.QualificationLink",
      "source": "52466683-bb42-4fbc-91e5-6ed2dffa6576",
      "target": "91840140-57b7-4db2-adf1-f0144cdad194"
    },
    {
      "id": "d56b8e03-7a91-4af9-ba0d-d00ee974046d",
      "type": "istar.QualificationLink",
      "source": "5dbe4e9d-e7dd-4e9b-9a50-b709b705bc03",
      "target": "91840140-57b7-4db2-adf1-f0144cdad194"
    },
    {
      "id": "a06d3090-92d6-4db4-88e7-52b6c4b57bbd",
      "type": "istar.ContributionLink",
      "source": "cb1b9ab6-61df-484c-be23-fe17171e236e",
      "target": "52466683-bb42-4fbc-91e5-6ed2dffa6576",
      "label": "make"
    },
    {
      "id": "80686988-f99f-4b40-b351-faecfa2ca72a",
      "type": "istar.QualificationLink",
      "source": "52466683-bb42-4fbc-91e5-6ed2dffa6576",
      "target": "0a11dd75-1b1e-47e9-92e9-a6707f31476f"
    },
    {
      "id": "1212844d-c457-43e9-b5c8-6e67736b3915",
      "type": "istar.QualificationLink",
      "source": "210ef89f-8bb5-4795-b75e-82d9da2649f3",
      "target": "0a11dd75-1b1e-47e9-92e9-a6707f31476f"
    },
    {
      "id": "a9df7bad-7147-4db9-b98d-546e33b09df5",
      "type": "istar.QualificationLink",
      "source": "1930e998-c0d4-46a8-9bc4-91b4c5f2b4b8",
      "target": "7d22223f-fe74-468a-9c56-218e0d23e43a"
    },
    {
      "id": "28ac027a-cc67-45f1-beb1-7b9c8d4c7d50",
      "type": "istar.ContributionLink",
      "source": "0555790e-8be2-43ef-b163-2d9d63b34c22",
      "target": "1930e998-c0d4-46a8-9bc4-91b4c5f2b4b8",
      "label": "make"
    },
    {
      "id": "cfe433d4-c5c0-43f1-9ace-780332edd0c2",
      "type": "istar.DependencyLink",
      "source": "91840140-57b7-4db2-adf1-f0144cdad194",
      "target": "e7c41124-aa3e-4477-bdf2-8d27c8feaf95"
    },
    {
      "id": "3bec6f17-2b50-4dce-be36-9198a9111f78",
      "type": "istar.DependencyLink",
      "source": "e7c41124-aa3e-4477-bdf2-8d27c8feaf95",
      "target": "bd6ca89c-cde7-435f-bf6d-076691bb395c"
    },
    {
      "id": "71a5d2e9-a979-4635-99b9-e80a86da9ac1",
      "type": "istar.DependencyLink",
      "source": "0a11dd75-1b1e-47e9-92e9-a6707f31476f",
      "target": "80da269b-7af7-44c8-8b61-66de2cfa186d"
    },
    {
      "id": "bf0fb869-2752-455a-888b-aa13d697004d",
      "type": "istar.DependencyLink",
      "source": "80da269b-7af7-44c8-8b61-66de2cfa186d",
      "target": "0555790e-8be2-43ef-b163-2d9d63b34c22"
    },
    {
      "id": "248de2c1-94fb-44d5-96e8-6621ad58c958",
      "type": "istar.DependencyLink",
      "source": "5d5031be-1d2d-4a05-9cb6-c5f89eea1bc7",
      "target": "8b1d3a67-52f0-4eb0-80f3-212f44a1802d"
    },
    {
      "id": "109bf600-a5b7-43d5-9537-331dd4e349ce",
      "type": "istar.DependencyLink",
      "source": "8b1d3a67-52f0-4eb0-80f3-212f44a1802d",
      "target": "c73727f9-050c-44f0-bb0b-5f8ffba31992"
    },
    {
      "id": "b9f06a83-644a-47d4-8b1a-58d8a37d5476",
      "type": "istar.DependencyLink",
      "source": "95f8ce1e-8a7c-4886-88eb-da088b794eb4",
      "target": "8c133555-3daa-4d76-bb05-1f172ac2dc1d"
    },
    {
      "id": "a92a9068-9062-405f-962f-fdc933ba90f7",
      "type": "istar.DependencyLink",
      "source": "8c133555-3daa-4d76-bb05-1f172ac2dc1d",
      "target": "2f9a508f-80c1-4571-a963-910604124627"
    },
    {
      "id": "1d54875a-7c5d-46ed-97ee-e8f0f8cf6e8e",
      "type": "istar.QualificationLink",
      "source": "697ded08-f974-44dc-80ff-3869320b6d1d",
      "target": "ddf28939-2775-4edd-9097-f40a66cd43ff"
    },
    {
      "id": "5377e802-cccb-4d52-9235-ce8a838a5ea2",
      "type": "istar.DependencyLink",
      "source": "ddf28939-2775-4edd-9097-f40a66cd43ff",
      "target": "1b13b79d-fe81-4bc5-bd2c-43654711837f"
    },
    {
      "id": "9c82a783-8cb5-4c3a-96ed-0036f577c841",
      "type": "istar.DependencyLink",
      "source": "1b13b79d-fe81-4bc5-bd2c-43654711837f",
      "target": "8ad76fbd-5c99-4c8e-b6d9-31ad267223d1"
    },
    {
      "id": "5552aaee-c536-4378-9051-c87cc6036aeb",
      "type": "istar.QualificationLink",
      "source": "92b4e41e-ac8e-4fd9-9147-b844eecc7ba2",
      "target": "e114bba2-c0fc-4828-8423-935410c9febc"
    },
    {
      "id": "83f92f37-c471-4cf5-9c4f-766efa41294d",
      "type": "istar.ContributionLink",
      "source": "22593f55-8331-4502-aca8-04aa1658d5aa",
      "target": "92b4e41e-ac8e-4fd9-9147-b844eecc7ba2",
      "label": "help"
    },
    {
      "id": "2ea8aa86-55b4-4e08-a4a7-c330cf838734",
      "type": "istar.DependencyLink",
      "source": "2f9a508f-80c1-4571-a963-910604124627",
      "target": "348f85d3-3f58-46a7-b6b9-28f0743bdf09"
    },
    {
      "id": "7523b652-ba2d-4979-a0ba-fbe971cb558a",
      "type": "istar.DependencyLink",
      "source": "348f85d3-3f58-46a7-b6b9-28f0743bdf09",
      "target": "c4616335-fdff-441e-a6f3-9244d2920d92"
    },
    {
      "id": "90f1b296-14cb-45f6-adb8-e2a25178d23e",
      "type": "istar.DependencyLink",
      "source": "c73727f9-050c-44f0-bb0b-5f8ffba31992",
      "target": "3ea5dd50-f7f2-4ed1-93e6-fcd96cebd147"
    },
    {
      "id": "cb0ac38e-79b7-4103-9588-512c1e82a69d",
      "type": "istar.DependencyLink",
      "source": "3ea5dd50-f7f2-4ed1-93e6-fcd96cebd147",
      "target": "847afd5b-1cff-4d48-8a0d-e53d29522ef8"
    },
    {
      "id": "55ff3134-ec98-4e27-ad5f-54cb7439fe90",
      "type": "istar.DependencyLink",
      "source": "bbe90a16-0520-4b6b-92c7-6df05296ab88",
      "target": "c8146510-3113-4c37-b121-cd5b85f61e3c"
    },
    {
      "id": "328a80f2-eb92-4eed-9b2f-eed3a5cd57ed",
      "type": "istar.DependencyLink",
      "source": "c8146510-3113-4c37-b121-cd5b85f61e3c",
      "target": "b74bf503-d286-4fa8-ba7e-f6139692974c"
    },
    {
      "id": "3cadc84d-65c0-4b36-a154-a4db152f5014",
      "type": "istar.DependencyLink",
      "source": "b916dad9-5861-453f-adfc-1db699aa61c5",
      "target": "baf14172-2d86-4325-8d21-b14477beb1e0"
    },
    {
      "id": "0e3cbaa5-2721-4efa-a78c-dcec4ea9698c",
      "type": "istar.DependencyLink",
      "source": "baf14172-2d86-4325-8d21-b14477beb1e0",
      "target": "44e9c560-aeaa-4e1b-a3a2-c1c6d43db7da"
    },
    {
      "id": "33d7404e-3282-4195-ba96-60889430472a",
      "type": "istar.DependencyLink",
      "source": "44e9c560-aeaa-4e1b-a3a2-c1c6d43db7da",
      "target": "ec1e4235-ef9b-447b-aeed-7c5d21c774e8"
    },
    {
      "id": "f1a6a793-b33f-418d-8470-a27e4e240983",
      "type": "istar.DependencyLink",
      "source": "ec1e4235-ef9b-447b-aeed-7c5d21c774e8",
      "target": "e114bba2-c0fc-4828-8423-935410c9febc"
    },
    {
      "id": "69d787ab-2bd9-4d00-8fc1-315bbc2a07af",
      "type": "istar.DependencyLink",
      "source": "e114bba2-c0fc-4828-8423-935410c9febc",
      "target": "b389f834-c609-4ea4-b26d-7676bd975385"
    },
    {
      "id": "adbf6945-6a5e-494a-924b-82402c82c5cc",
      "type": "istar.DependencyLink",
      "source": "b389f834-c609-4ea4-b26d-7676bd975385",
      "target": "556cbc90-2954-48ce-800e-59578050257d"
    },
    {
      "id": "ee0a502a-6efe-4cb4-8bfc-eafe5c4bd24c",
      "type": "istar.DependencyLink",
      "source": "ceb0fe65-470b-4bd1-a2c9-d12b85c026e4",
      "target": "d8ed3a1f-284d-44be-9879-3f0f01f4dde1"
    },
    {
      "id": "760da480-f4fe-4d1d-8117-ce68aa262bc0",
      "type": "istar.DependencyLink",
      "source": "d8ed3a1f-284d-44be-9879-3f0f01f4dde1",
      "target": "8d7844f5-8410-452f-a313-b6d0c4de380b"
    }
  ],
  "display": {
    "a598af87-885c-44a5-851f-725b4c3b8040": {
      "width": 121.28750038146973,
      "height": 49.52499771118164
    },
    "5d5031be-1d2d-4a05-9cb6-c5f89eea1bc7": {
      "width": 107.28750038146973,
      "height": 40.524993896484375
    },
    "95f8ce1e-8a7c-4886-88eb-da088b794eb4": {
      "width": 100.28750038146973,
      "height": 37.524993896484375
    },
    "8ad76fbd-5c99-4c8e-b6d9-31ad267223d1": {
      "width": 114.28750038146973,
      "height": 42.524993896484375
    },
    "ceb0fe65-470b-4bd1-a2c9-d12b85c026e4": {
      "width": 127.28750038146973,
      "height": 41.02499961853027
    },
    "a9f7b839-0093-41db-bd9c-c2caf7d03ee7": {
      "width": 109.28750038146973,
      "height": 38.524993896484375
    },
    "3e426fb6-ab36-4524-abec-461e6f7c9156": {
      "width": 110.28750038146973,
      "height": 36.02499961853027
    },
    "86302359-b6fe-47e3-8602-73c8824807af": {
      "width": 80.911865234375,
      "height": 54.5307502746582
    },
    "5b0b3578-dbf3-4e1d-bfb4-897c59fd8856": {
      "width": 66.9073486328125,
      "height": 63.531585693359375
    },
    "b0599804-524b-41c1-9c99-6f1547d14f37": {
      "width": 87.91397094726562,
      "height": 50.530338287353516
    },
    "be125437-fc0d-44e4-b34b-b3d3fe0c151e": {
      "width": 80.911865234375,
      "height": 45.52981948852539
    },
    "c9a0ccd4-d88f-4851-a54d-df66035bd5f0": {
      "width": 94.91607666015625,
      "height": 55.53085708618164
    },
    "b1706ab1-403a-4aff-a79a-b2527bc52532": {
      "width": 109.92059326171875,
      "height": 57.53085708618164
    },
    "35b30ce8-5068-40e4-ab28-4cd8ed63e1f6": {
      "width": 68.90824890136719,
      "height": 50.53024673461914
    },
    "4619d331-85e2-4817-8f48-0ee08ee35eaf": {
      "width": 76.91035461425781,
      "height": 44.029544830322266
    },
    "1109cc2d-ef9f-454c-8d54-a5a857f293cb": {
      "width": 117.92300415039062,
      "height": 48.5300178527832
    },
    "5dbe4e9d-e7dd-4e9b-9a50-b709b705bc03": {
      "width": 81.91217041015625,
      "height": 36.5286750793457
    },
    "52466683-bb42-4fbc-91e5-6ed2dffa6576": {
      "width": 63.90704345703125,
      "height": 40.52919387817383
    },
    "92b4e41e-ac8e-4fd9-9147-b844eecc7ba2": {
      "width": 100.6396484375,
      "height": 46.8485107421875
    },
    "57c4922c-9936-4929-897a-6d3e259ed3f5": {
      "width": 95.88750648498535,
      "height": 51.52499771118164
    },
    "a1547d0f-0f5e-4aa3-911d-0ebd631f7c32": {
      "width": 108.88748168945312,
      "height": 55.02499771118164
    },
    "8d7844f5-8410-452f-a313-b6d0c4de380b": {
      "width": 95.88748168945312,
      "height": 44.524993896484375
    },
    "2f9a508f-80c1-4571-a963-910604124627": {
      "width": 93.88748168945312,
      "height": 46.024993896484375
    },
    "c73727f9-050c-44f0-bb0b-5f8ffba31992": {
      "width": 104.88748168945312,
      "height": 57.024993896484375
    },
    "bbe90a16-0520-4b6b-92c7-6df05296ab88": {
      "width": 93.88748168945312,
      "height": 47.024993896484375
    },
    "7ee56417-0a4b-4bf4-9820-45554700ef71": {
      "width": 79.91159057617188,
      "height": 48.53001403808594
    },
    "f55da100-5ec5-49ac-b7ac-5b059d33b8be": {
      "width": 80.91183471679688,
      "height": 42.02924346923828
    },
    "d84a2562-e2d1-4c0e-8eef-02a535e972ae": {
      "width": 91.91519165039062,
      "height": 38.52888488769531
    },
    "4ee89d6a-fd8c-4016-bcd6-0531d68f4f52": {
      "width": 144.93118286132812,
      "height": 35.528564453125
    },
    "5d261e00-b829-4b57-bc72-493dbd84585d": {
      "width": 79.91128540039062,
      "height": 46.529815673828125
    },
    "c623707f-59b5-4889-bd6b-b00eef3b86da": {
      "width": 138.38748168945312,
      "height": 47.524993896484375
    },
    "e055cb8e-4ab1-4d0a-a1eb-659d62315226": {
      "width": 107.92001342773438,
      "height": 44.529693603515625
    },
    "2828e3ba-64fd-4e9b-b27f-cc97d72a6c6c": {
      "width": 70.90853881835938,
      "height": 35.02862548828125
    },
    "fd98ed64-6841-44a3-89c6-c9efeb739975": {
      "width": 96.38748168945312,
      "height": 47.524993896484375
    },
    "1930e998-c0d4-46a8-9bc4-91b4c5f2b4b8": {
      "width": 97.63848876953125,
      "height": 45.34844970703125
    },
    "ddf28939-2775-4edd-9097-f40a66cd43ff": {
      "width": 104.875,
      "height": 39.86111259460449
    },
    "697ded08-f974-44dc-80ff-3869320b6d1d": {
      "width": 77.8988037109375,
      "height": 48.36611747741699
    },
    "b3749102-e943-4c5d-9dc0-411d5d864051": {
      "width": 75.91006469726562,
      "height": 56.530853271484375
    },
    "77e8d422-bcad-43a2-b452-86cf0164fc33": {
      "width": 95.91641235351562,
      "height": 44.029541015625
    },
    "08ba0e2e-8b66-4942-a22a-80df1a7b2fa0": {
      "width": 87.91397094726562,
      "height": 39.529083251953125
    },
    "99734b31-d3b4-49bd-8d6e-38c8a09d8241": {
      "width": 69.90853881835938,
      "height": 44.029449462890625
    },
    "e8abd10c-41ca-41ea-9cad-463faf8a92e4": {
      "width": 62.906463623046875,
      "height": 53.0303840637207
    },
    "e2546635-a33e-4a5d-9081-3266da5db88a": {
      "width": 69.90859985351562,
      "height": 63.53158950805664
    },
    "e7c41124-aa3e-4477-bdf2-8d27c8feaf95": {
      "width": 99.9312515258789,
      "height": 46.43125915527344
    },
    "80da269b-7af7-44c8-8b61-66de2cfa186d": {
      "width": 105.9312515258789,
      "height": 44.43125915527344
    },
    "8b1d3a67-52f0-4eb0-80f3-212f44a1802d": {
      "width": 106.28750038146973,
      "height": 43.524993896484375
    },
    "8c133555-3daa-4d76-bb05-1f172ac2dc1d": {
      "width": 93.28750038146973,
      "height": 51.524993896484375
    },
    "1b13b79d-fe81-4bc5-bd2c-43654711837f": {
      "width": 111.875,
      "height": 43.861114501953125
    },
    "348f85d3-3f58-46a7-b6b9-28f0743bdf09": {
      "width": 109.9312515258789,
      "height": 47.43125915527344
    },
    "3ea5dd50-f7f2-4ed1-93e6-fcd96cebd147": {
      "width": 109.609375,
      "height": 42.34375
    },
    "baf14172-2d86-4325-8d21-b14477beb1e0": {
      "width": 117.609375,
      "height": 43.34375
    },
    "ec1e4235-ef9b-447b-aeed-7c5d21c774e8": {
      "width": 98.9312515258789,
      "height": 43.43125915527344
    },
    "b389f834-c609-4ea4-b26d-7676bd975385": {
      "width": 100.9312515258789,
      "height": 42.43125915527344
    },
    "d8ed3a1f-284d-44be-9879-3f0f01f4dde1": {
      "width": 112.9312515258789,
      "height": 51.43125915527344
    },
    "4e87e4b0-ae51-4416-8e19-340216f5909f": {
      "vertices": [
        {
          "x": 635,
          "y": 45
        },
        {
          "x": 632,
          "y": 149
        }
      ]
    }
  },
  "tool": "pistar.2.0.0",
  "istar": "2.0",
  "saveDate": "Sat, 20 Nov 2021 11:36:12 GMT",
  "diagram": {
    "width": 2116,
    "height": 3403,
    "name": "strategic rationale view",
    "customProperties": {
      "Description": "all users & dependencies"
    }
  }
}